[gd_resource type="SpriteFrames" load_steps=7 format=2]

[ext_resource path="res://HomunConfig/HomunSprites/sera/sera-0.png" type="Texture" id=1]
[ext_resource path="res://HomunConfig/HomunSprites/sera/sera-4.png" type="Texture" id=2]
[ext_resource path="res://HomunConfig/HomunSprites/sera/sera-3.png" type="Texture" id=3]
[ext_resource path="res://HomunConfig/HomunSprites/sera/sera-2.png" type="Texture" id=4]
[ext_resource path="res://HomunConfig/HomunSprites/sera/sera-1.png" type="Texture" id=5]
[ext_resource path="res://HomunConfig/HomunSprites/sera/sera-5.png" type="Texture" id=6]

[resource]
animations = [ {
"frames": [ ExtResource( 1 ), ExtResource( 5 ), ExtResource( 4 ), ExtResource( 3 ), ExtResource( 2 ), ExtResource( 6 ) ],
"loop": true,
"name": "default",
"speed": 8.0
} ]
