[gd_resource type="StyleBoxFlat" format=2]

[resource]
content_margin_left = 16.0
content_margin_right = 16.0
content_margin_top = 12.0
content_margin_bottom = 12.0
bg_color = Color( 0.176471, 0.176471, 0.184314, 1 )
border_width_left = 2
border_width_top = 2
border_width_right = 2
border_width_bottom = 2
border_color = Color( 0.133333, 0.129412, 0.156863, 1 )
corner_radius_top_left = 12
corner_radius_top_right = 12
corner_radius_bottom_right = 12
corner_radius_bottom_left = 12
