[gd_resource type="StyleBoxFlat" format=2]

[resource]
content_margin_left = 6.0
content_margin_right = 6.0
content_margin_top = 4.0
content_margin_bottom = 2.0
bg_color = Color( 0.235294, 0.227451, 0.266667, 1 )
border_width_left = 1
border_width_top = 1
border_width_right = 1
border_color = Color( 0.431373, 0.447059, 0.47451, 1 )
corner_radius_top_left = 4
corner_radius_top_right = 4
expand_margin_top = 4.0
